{"photos":{"page":1,"pages":1568,"perpage":100,"total":"156792",
   "photo":[
     {"id":"33000438188","owner":"167259496@N06","secret":"7a331bba0b","server":"7905","farm":8,"title":"Adorable duo #twins! The Purrfect Party on their birthday! Watch a video at- http:\/\/bit.ly\/2Hy5st9 #cat #kitten #kittenhappiness","ispublic":1,"isfriend":0,"isfamily":0},
     {"id":"39910948843","owner":"168222965@N05","secret":"4716c963f1","server":"7807","farm":8,"title":"Version 2","ispublic":1,"isfriend":0,"isfamily":0},
     {"id":"46823720272","owner":"50946698@N04","secret":"47a75e53d1","server":"7827","farm":8,"title":"Photobomb 1","ispublic":1,"isfriend":0,"isfamily":0},{"id":"45961292195","owner":"112551223@N02","secret":"4b145ce596","server":"4910","farm":5,"title":"Gat","ispublic":1,"isfriend":0,"isfamily":0},{"id":"31934432337","owner":"160354432@N07","secret":"cf30596256","server":"7879","farm":8,"title":"Rare Blue Marbled Bengal Cat Photograph OtterBox Commuter Google Pixel XL Case","ispublic":1,"isfriend":0,"isfamily":0},{"id":"31934359347","owner":"21319001@N03","secret":"2f23a62bee","server":"4877","farm":5,"title":"Icy the Cat (towel)","ispublic":1,"isfriend":0,"isfamily":0},{"id":"46150766264","owner":"129024317@N07","secret":"ecabe2f733","server":"4833","farm":5,"title":"1\/25\/2019","ispublic":1,"isfriend":0,"isfamily":0},{"id":"46875427821","owner":"162409058@N03","secret":"d9714e0a15","server":"4908","farm":5,"title":"","ispublic":1,"isfriend":0,"isfamily":0},{"id":"33000156088","owner":"94364624@N00","secret":"e26bc510e3","server":"4844","farm":5,"title":"DSC02121","ispublic":1,"isfriend":0,"isfamily":0},{"id":"39910653913","owner":"94364624@N00","secret":"81b137bd09","server":"4828","farm":5,"title":"DSC02122","ispublic":1,"isfriend":0,"isfamily":0},{"id":"39910653773","owner":"94364624@N00","secret":"df9445f38d","server":"4830","farm":5,"title":"DSC02123","ispublic":1,"isfriend":0,"isfamily":0},{"id":"33000155798","owner":"94364624@N00","secret":"b1560b13b1","server":"4860","farm":5,"title":"DSC02125","ispublic":1,"isfriend":0,"isfamily":0},{"id":"39910653643","owner":"94364624@N00","secret":"3eb1e53053","server":"4892","farm":5,"title":"DSC02126","ispublic":1,"isfriend":0,"isfamily":0},{"id":"39910653523","owner":"94364624@N00","secret":"f43f412e3e","server":"4852","farm":5,"title":"DSC02131","ispublic":1,"isfriend":0,"isfamily":0},{"id":"33000155628","owner":"94364624@N00","secret":"bccb7b496d","server":"7870","farm":8,"title":"DSC02127","ispublic":1,"isfriend":0,"isfamily":0},{"id":"33000155518","owner":"94364624@N00","secret":"58ab1c3c96","server":"4910","farm":5,"title":"DSC02162","ispublic":1,"isfriend":0,"isfamily":0},{"id":"39910653413","owner":"94364624@N00","secret":"3216b84f0f","server":"4870","farm":5,"title":"DSC02163","ispublic":1,"isfriend":0,"isfamily":0},{"id":"39910653273","owner":"94364624@N00","secret":"beea2612ce","server":"4892","farm":5,"title":"DSC02166","ispublic":1,"isfriend":0,"isfamily":0},{"id":"33000155108","owner":"94364624@N00","secret":"26f90c5e5c","server":"4875","farm":5,"title":"DSC02169","ispublic":1,"isfriend":0,"isfamily":0},{"id":"39910653163","owner":"94364624@N00","secret":"003c3524ee","server":"4869","farm":5,"title":"DSC02170","ispublic":1,"isfriend":0,"isfamily":0},{"id":"39910653093","owner":"94364624@N00","secret":"d8fce5fb45","server":"4899","farm":5,"title":"DSC02171","ispublic":1,"isfriend":0,"isfamily":0},{"id":"33000154778","owner":"94364624@N00","secret":"b5a0619d6f","server":"4824","farm":5,"title":"DSC02173","ispublic":1,"isfriend":0,"isfamily":0},{"id":"39910653033","owner":"94364624@N00","secret":"766699ea7f","server":"4882","farm":5,"title":"DSC02172","ispublic":1,"isfriend":0,"isfamily":0},{"id":"39910652903","owner":"94364624@N00","secret":"e3dac5c4cb","server":"4910","farm":5,"title":"DSC02174","ispublic":1,"isfriend":0,"isfamily":0},{"id":"33000154608","owner":"94364624@N00","secret":"d1ddb0c12b","server":"4828","farm":5,"title":"DSC02175","ispublic":1,"isfriend":0,"isfamily":0},{"id":"31934230827","owner":"94364624@N00","secret":"33f4e3314c","server":"7805","farm":8,"title":"DSC02176","ispublic":1,"isfriend":0,"isfamily":0},{"id":"31934230637","owner":"94364624@N00","secret":"e6262a2edd","server":"4825","farm":5,"title":"DSC02179","ispublic":1,"isfriend":0,"isfamily":0},{"id":"33000154278","owner":"94364624@N00","secret":"f789c33d48","server":"4816","farm":5,"title":"DSC02181","ispublic":1,"isfriend":0,"isfamily":0},{"id":"31934230437","owner":"94364624@N00","secret":"7459eb67c1","server":"4900","farm":5,"title":"DSC02189","ispublic":1,"isfriend":0,"isfamily":0},{"id":"33000154128","owner":"94364624@N00","secret":"0be210968c","server":"4834","farm":5,"title":"DSC02190","ispublic":1,"isfriend":0,"isfamily":0},{"id":"31934230237","owner":"94364624@N00","secret":"04a92b522d","server":"7820","farm":8,"title":"DSC02191","ispublic":1,"isfriend":0,"isfamily":0},{"id":"33000153998","owner":"94364624@N00","secret":"9c285df7fe","server":"7900","farm":8,"title":"DSC02192","ispublic":1,"isfriend":0,"isfamily":0},{"id":"31934230007","owner":"94364624@N00","secret":"c8b07730fa","server":"4837","farm":5,"title":"DSC02193","ispublic":1,"isfriend":0,"isfamily":0},{"id":"33000153698","owner":"94364624@N00","secret":"eb7fc977ce","server":"7821","farm":8,"title":"PICT0008","ispublic":1,"isfriend":0,"isfamily":0},{"id":"31934229807","owner":"94364624@N00","secret":"59e9de7c3d","server":"7862","farm":8,"title":"PICT0009","ispublic":1,"isfriend":0,"isfamily":0},{"id":"33000153498","owner":"94364624@N00","secret":"8e72efc2a7","server":"7905","farm":8,"title":"PICT0018","ispublic":1,"isfriend":0,"isfamily":0},{"id":"31934100827","owner":"33255628@N00","secret":"d16711f6f9","server":"7861","farm":8,"title":"Alexey Dolotov \u2013 Kitten taking bath in a sink (c.2016)","ispublic":1,"isfriend":0,"isfamily":0},{"id":"33000031758","owner":"33255628@N00","secret":"dd141e72c8","server":"7906","farm":8,"title":"Olga and Alexander Drozdov \u2013 In a bathroom with two kitten","ispublic":1,"isfriend":0,"isfamily":0},{"id":"46823347672","owner":"33255628@N00","secret":"8d62ed1f07","server":"4918","farm":5,"title":"Alexey Dolotov \u2013 Kitten taking bath in a sink (c.2016)","ispublic":1,"isfriend":0,"isfamily":0},{"id":"31934071597","owner":"33255628@N00","secret":"65284510a6","server":"7805","farm":8,"title":"Olga and Alexander Drozdov \u2013 In a bathroom with two kitten","ispublic":1,"isfriend":0,"isfamily":0},{"id":"46823336642","owner":"167259496@N06","secret":"8d5a834bd4","server":"7801","farm":8,"title":"Your kitten\u2019s ID tag is actually more than pet jewelry. It's an essential safety net to safeguard your feline in case he gets lost. I've put together the benefits and watch a video to know how to choose the right tag for your cat. Stay on - http:\/\/bit.ly\/","ispublic":1,"isfriend":0,"isfamily":0},{"id":"39910507973","owner":"36377772@N07","secret":"475ffb0016","server":"7911","farm":8,"title":"","ispublic":1,"isfriend":0,"isfamily":0},{"id":"45960891585","owner":"36377772@N07","secret":"208afa8a62","server":"7923","farm":8,"title":"","ispublic":1,"isfriend":0,"isfamily":0},{"id":"32999932348","owner":"36377772@N07","secret":"8bc0bb9581","server":"7823","farm":8,"title":"","ispublic":1,"isfriend":0,"isfamily":0},{"id":"46823185162","owner":"134768063@N02","secret":"6f342253c3","server":"4863","farm":5,"title":"Trout","ispublic":1,"isfriend":0,"isfamily":0},{"id":"32999790708","owner":"45866071@N06","secret":"e5874d0a3f","server":"7821","farm":8,"title":"costum\u00e9s  Bruges 2019 -10h 0202 mr Tpz ancient slate hd","ispublic":1,"isfriend":0,"isfamily":0},{"id":"46874803631","owner":"157339655@N08","secret":"a301b5b4fa","server":"4882","farm":5,"title":"Getting your kitten vaccinated \u2013 what you need to know","ispublic":1,"isfriend":0,"isfamily":0},{"id":"46150119974","owner":"144657961@N03","secret":"9cf56a1979","server":"7827","farm":8,"title":"DSC_1225","ispublic":1,"isfriend":0,"isfamily":0},{"id":"46150031864","owner":"163763075@N07","secret":"2dd3905575","server":"7901","farm":8,"title":"47443956_2127731140581748_2995150200403656704_o","ispublic":1,"isfriend":0,"isfamily":0},{"id":"46150031304","owner":"165169819@N03","secret":"cf06835298","server":"4836","farm":5,"title":"DSC_0020","ispublic":1,"isfriend":0,"isfamily":0},{"id":"46822823732","owner":"161579564@N04","secret":"27639b2644","server":"4907","farm":5,"title":"","ispublic":1,"isfriend":0,"isfamily":0},{"id":"39910016983","owner":"168882965@N05","secret":"bc9698ba24","server":"4911","farm":5,"title":"Clothed Cats : Harry W. Frees \u2013 Kitten being carried on back of doll, 1914.","ispublic":1,"isfriend":0,"isfamily":0},{"id":"31933379117","owner":"149020226@N07","secret":"8cb72e0bba","server":"7926","farm":8,"title":"Young tabby cat on a concrete floor","ispublic":1,"isfriend":0,"isfamily":0},{"id":"32999376558","owner":"149020226@N07","secret":"ceb58336dc","server":"4845","farm":5,"title":"Young tabby cat licking itself","ispublic":1,"isfriend":0,"isfamily":0},{"id":"46149649354","owner":"151600519@N08","secret":"6b92e5ef7f","server":"7811","farm":8,"title":"DSC06792","ispublic":1,"isfriend":0,"isfamily":0},{"id":"46874218231","owner":"154605377@N08","secret":"fa70a726af","server":"7904","farm":8,"title":"Black Doll Face Kittens","ispublic":1,"isfriend":0,"isfamily":0},{"id":"46822365032","owner":"141909205@N08","secret":"744fd0b7ac","server":"4841","farm":5,"title":"Friday Art Cat: The Pencilled Kitten","ispublic":1,"isfriend":0,"isfamily":0},{"id":"46874213611","owner":"144318271@N03","secret":"5cb1ac77e4","server":"4899","farm":5,"title":"Purina Pro Plan Canned Kitten Ocean Whitefish And Tuna Food, 3 Oz.","ispublic":1,"isfriend":0,"isfamily":0},{"id":"31933027997","owner":"168882965@N05","secret":"c2d12f7224","server":"4862","farm":5,"title":"Funniest Animal Pictures : Griffin von Porkchop: The Snaggletoothed Cat That Will Steal Your Candy","ispublic":1,"isfriend":0,"isfamily":0},{"id":"32998987768","owner":"55878496@N06","secret":"124d6cf6b0","server":"7876","farm":8,"title":"Merlino","ispublic":1,"isfriend":0,"isfamily":0},{"id":"32998966818","owner":"161852246@N03","secret":"db96685acd","server":"4907","farm":5,"title":"RBQHsKzFreE","ispublic":1,"isfriend":0,"isfamily":0},{"id":"46149441104","owner":"156044296@N08","secret":"60cb389845","server":"4835","farm":5,"title":"RBQHsKzFreE","ispublic":1,"isfriend":0,"isfamily":0},{"id":"31932949867","owner":"51491101@N03","secret":"d65598a0ee","server":"4868","farm":5,"title":"#Nahla #nordischewaldkatze","ispublic":1,"isfriend":0,"isfamily":0},{"id":"39909468023","owner":"161528266@N03","secret":"5466e70e48","server":"7828","farm":8,"title":"_DSC8231","ispublic":1,"isfriend":0,"isfamily":0},{"id":"31932836307","owner":"32167224@N04","secret":"075f742c42","server":"4904","farm":5,"title":"IMG_20190124_194458","ispublic":1,"isfriend":0,"isfamily":0},{"id":"31932836197","owner":"32167224@N04","secret":"62656e3983","server":"4867","farm":5,"title":"IMG_20190124_194902_305","ispublic":1,"isfriend":0,"isfamily":0},{"id":"46821708222","owner":"154605377@N08","secret":"b0d580d487","server":"4873","farm":5,"title":"Be My Valentine","ispublic":1,"isfriend":0,"isfamily":0},{"id":"46822225402","owner":"163608685@N03","secret":"0e7864423b","server":"4913","farm":5,"title":"BQC0Z8bcWoY","ispublic":1,"isfriend":0,"isfamily":0},{"id":"45959658855","owner":"151187872@N05","secret":"b6990766e8","server":"7812","farm":8,"title":"IMG_6734","ispublic":1,"isfriend":0,"isfamily":0},{"id":"45959640345","owner":"17223773@N00","secret":"39e71e1f62","server":"7828","farm":8,"title":"Fred in a box","ispublic":1,"isfriend":0,"isfamily":0},{"id":"46873885801","owner":"153725428@N08","secret":"b484f72aa5","server":"4906","farm":5,"title":"0009","ispublic":1,"isfriend":0,"isfamily":0},{"id":"46873776201","owner":"153725428@N08","secret":"a98d9e9b4a","server":"7850","farm":8,"title":"0204","ispublic":1,"isfriend":0,"isfamily":0},{"id":"45959494185","owner":"153725428@N08","secret":"7889c47d5e","server":"4883","farm":5,"title":"0211","ispublic":1,"isfriend":0,"isfamily":0},{"id":"39909172983","owner":"25101486@N03","secret":"b2dfb6c998","server":"4894","farm":5,"title":"TGIF!!! #borgvikensholly #birma #birman #breeder #catsofinstagram #chokladochvanilj #pinkalicious #welovecats #we_love_cats #excellent_cats #bestcats_oftheworld #bestmeow #birman_feature #birmavanner","ispublic":1,"isfriend":0,"isfamily":0},{"id":"39909156633","owner":"154605377@N08","secret":"b8dde059d5","server":"7876","farm":8,"title":"Cute Kitten Pictures","ispublic":1,"isfriend":0,"isfamily":0},{"id":"46873798951","owner":"154379860@N03","secret":"ef3c0326d4","server":"4869","farm":5,"title":"FB_IMG_1537681165932","ispublic":1,"isfriend":0,"isfamily":0},{"id":"46873749861","owner":"154379860@N03","secret":"df13039981","server":"7908","farm":8,"title":"FB_IMG_1538339373840","ispublic":1,"isfriend":0,"isfamily":0},{"id":"31932542437","owner":"168882965@N05","secret":"406955f7e2","server":"4810","farm":5,"title":"Clothed Cats : Vintage CAT Postcard 1906 RPPC Kitten ROTOGRAPH Real Photo Postcard \u201cMiss Kitty\u201d Sweet Cat Proudly Sitting Up Showing Off Her Feathered Hat","ispublic":1,"isfriend":0,"isfamily":0},{"id":"46149043914","owner":"168882965@N05","secret":"af2f9d032e","server":"7895","farm":8,"title":"Funniest Animal Pictures : 26 Funny Pictures That Will Make You Smile","ispublic":1,"isfriend":0,"isfamily":0},{"id":"39908970503","owner":"154379860@N03","secret":"25c6edee5a","server":"4861","farm":5,"title":"FB_IMG_1539611505448","ispublic":1,"isfriend":0,"isfamily":0},{"id":"31932430327","owner":"154379860@N03","secret":"2f3dc77c34","server":"7908","farm":8,"title":"FB_IMG_1542027571315","ispublic":1,"isfriend":0,"isfamily":0},{"id":"39908914713","owner":"154379860@N03","secret":"d9eb027378","server":"4807","farm":5,"title":"FB_IMG_1542126033531","ispublic":1,"isfriend":0,"isfamily":0},{"id":"32998318778","owner":"154379860@N03","secret":"8cf1f76511","server":"7826","farm":8,"title":"FB_IMG_1544983991007","ispublic":1,"isfriend":0,"isfamily":0},{"id":"46821689132","owner":"154379860@N03","secret":"e65f64ae56","server":"4851","farm":5,"title":"FB_IMG_1545063031190","ispublic":1,"isfriend":0,"isfamily":0},{"id":"39908835513","owner":"154379860@N03","secret":"556d3f928e","server":"7880","farm":8,"title":"FB_IMG_1545980883173","ispublic":1,"isfriend":0,"isfamily":0},{"id":"46148862204","owner":"51035644485@N01","secret":"ba6a852820","server":"4858","farm":5,"title":"2019-01-06-09","ispublic":1,"isfriend":0,"isfamily":0},{"id":"32998205438","owner":"148451939@N03","secret":"5f89690475","server":"4875","farm":5,"title":"IMG_1823","ispublic":1,"isfriend":0,"isfamily":0},{"id":"39908723033","owner":"148451939@N03","secret":"62bed7ffc7","server":"7803","farm":8,"title":"IMG_1863","ispublic":1,"isfriend":0,"isfamily":0},{"id":"46873340131","owner":"57791024@N00","secret":"1299f9ac77","server":"7901","farm":8,"title":"This is what I'm working on today. How's your day going?? #kitty #cat #kitten #cutenessoverload #hugeeyes #yyc #photographer #alberta #yycphotographer #calgaryphotographer #fb #calgary","ispublic":1,"isfriend":0,"isfamily":0},{"id":"32998129778","owner":"89396399@N05","secret":"ccc054cd50","server":"7805","farm":8,"title":"One pomeranian and two papillons","ispublic":1,"isfriend":0,"isfamily":0},{"id":"31932146407","owner":"96580860@N08","secret":"05a3f1f2d3","server":"7818","farm":8,"title":"Kitten bowl!","ispublic":1,"isfriend":0,"isfamily":0},{"id":"45959031545","owner":"154605377@N08","secret":"4ee64797a8","server":"4884","farm":5,"title":"Black & White Persian Kitten","ispublic":1,"isfriend":0,"isfamily":0},{"id":"31932133057","owner":"39906164@N00","secret":"67d04fa77d","server":"4889","farm":5,"title":"nala-8-sm","ispublic":1,"isfriend":0,"isfamily":0},{"id":"39908568813","owner":"89396399@N05","secret":"e7b6462f45","server":"4855","farm":5,"title":"One pomeranian and two papillons","ispublic":1,"isfriend":0,"isfamily":0},{"id":"46820290632","owner":"78517182@N07","secret":"19b25a7991","server":"4884","farm":5,"title":"Dragon's nest","ispublic":1,"isfriend":0,"isfamily":0},{"id":"46148553274","owner":"24832955@N02","secret":"b0aa102870","server":"4818","farm":5,"title":"Lapje in the morning sun","ispublic":1,"isfriend":0,"isfamily":0},{"id":"46873234841","owner":"143630258@N05","secret":"b569fdeb9f","server":"4879","farm":5,"title":"","ispublic":1,"isfriend":0,"isfamily":0},{"id":"46873234601","owner":"143630258@N05","secret":"0fcb2bcbd1","server":"4899","farm":5,"title":"","ispublic":1,"isfriend":0,"isfamily":0},{"id":"39908552683","owner":"143630258@N05","secret":"38a24f329a","server":"7914","farm":8,"title":"","ispublic":1,"isfriend":0,"isfamily":0},{"id":"39908518783","owner":"146237172@N03","secret":"b383d4a4fe","server":"4864","farm":5,"title":"IMG_4800","ispublic":1,"isfriend":0,"isfamily":0}]},"stat":"ok"}
